^C:\USERS\SUGAR\SOURCE\REPOS\GAME_2.0\GAME_2.0\DEBUG\CONFIGURATION.OBJ|C:\USERS\SUGAR\SOURCE\REPOS\GAME_2.0\GAME_2.0\DEBUG\DIALOGUE.OBJ|C:\USERS\SUGAR\SOURCE\REPOS\GAME_2.0\GAME_2.0\DEBUG\DIALOGUEITERATOR.OBJ|C:\USERS\SUGAR\SOURCE\REPOS\GAME_2.0\GAME_2.0\DEBUG\DIALOGUEPARSER.OBJ|C:\USERS\SUGAR\SOURCE\REPOS\GAME_2.0\GAME_2.0\DEBUG\GAMEPROCESS.OBJ|C:\USERS\SUGAR\SOURCE\REPOS\GAME_2.0\GAME_2.0\DEBUG\HERO.OBJ|C:\USERS\SUGAR\SOURCE\REPOS\GAME_2.0\GAME_2.0\DEBUG\HEROMEDIATOR.OBJ|C:\USERS\SUGAR\SOURCE\REPOS\GAME_2.0\GAME_2.0\DEBUG\LEVEL.OBJ|C:\USERS\SUGAR\SOURCE\REPOS\GAME_2.0\GAME_2.0\DEBUG\MAIN.OBJ|C:\USERS\SUGAR\SOURCE\REPOS\GAME_2.0\GAME_2.0\DEBUG\PHRASENODE.OBJ|C:\USERS\SUGAR\SOURCE\REPOS\GAME_2.0\GAME_2.0\DEBUG\PLOT.OBJ|C:\USERS\SUGAR\SOURCE\REPOS\GAME_2.0\GAME_2.0\DEBUG\PLOTMANAGER.OBJ|C:\USERS\SUGAR\SOURCE\REPOS\GAME_2.0\GAME_2.0\DEBUG\PLOTPART.OBJ|C:\USERS\SUGAR\SOURCE\REPOS\GAME_2.0\GAME_2.0\DEBUG\PLOTPARTDECORATOR.OBJ|C:\USERS\SUGAR\SOURCE\REPOS\GAME_2.0\GAME_2.0\DEBUG\_LEVEL.OBJ|C:\USERS\SUGAR\SOURCE\REPOS\GAME_2.0\GAME_2.0\DEBUG\_PLOT.OBJ
C:\USERS\SUGAR\SOURCE\REPOS\GAME_2.0\DEBUG\GAME_2.0.EXE
C:\USERS\SUGAR\SOURCE\REPOS\GAME_2.0\DEBUG\GAME_2.0.ILK
C:\USERS\SUGAR\SOURCE\REPOS\GAME_2.0\DEBUG\GAME_2.0.PDB
^C:\USERS\SUGAR\SOURCE\REPOS\GAME_3.0\GAME_2.0\DEBUG\CONFIGURATION.OBJ|C:\USERS\SUGAR\SOURCE\REPOS\GAME_3.0\GAME_2.0\DEBUG\DIALOGUE.OBJ|C:\USERS\SUGAR\SOURCE\REPOS\GAME_3.0\GAME_2.0\DEBUG\DIALOGUEITERATOR.OBJ|C:\USERS\SUGAR\SOURCE\REPOS\GAME_3.0\GAME_2.0\DEBUG\DIALOGUEPARSER.OBJ|C:\USERS\SUGAR\SOURCE\REPOS\GAME_3.0\GAME_2.0\DEBUG\GAMEPROCESS.OBJ|C:\USERS\SUGAR\SOURCE\REPOS\GAME_3.0\GAME_2.0\DEBUG\GAMEPROCESSMEDIATOR.OBJ|C:\USERS\SUGAR\SOURCE\REPOS\GAME_3.0\GAME_2.0\DEBUG\HERO.OBJ|C:\USERS\SUGAR\SOURCE\REPOS\GAME_3.0\GAME_2.0\DEBUG\HEROCONTROLLER.OBJ|C:\USERS\SUGAR\SOURCE\REPOS\GAME_3.0\GAME_2.0\DEBUG\LEVEL.OBJ|C:\USERS\SUGAR\SOURCE\REPOS\GAME_3.0\GAME_2.0\DEBUG\MAIN.OBJ|C:\USERS\SUGAR\SOURCE\REPOS\GAME_3.0\GAME_2.0\DEBUG\PHRASENODE.OBJ|C:\USERS\SUGAR\SOURCE\REPOS\GAME_3.0\GAME_2.0\DEBUG\PLOT.OBJ|C:\USERS\SUGAR\SOURCE\REPOS\GAME_3.0\GAME_2.0\DEBUG\PLOTMANAGER.OBJ|C:\USERS\SUGAR\SOURCE\REPOS\GAME_3.0\GAME_2.0\DEBUG\PLOTPART.OBJ|C:\USERS\SUGAR\SOURCE\REPOS\GAME_3.0\GAME_2.0\DEBUG\PLOTPARTDECORATOR.OBJ|C:\USERS\SUGAR\SOURCE\REPOS\GAME_3.0\GAME_2.0\DEBUG\SAVE.OBJ
C:\USERS\SUGAR\SOURCE\REPOS\GAME_3.0\DEBUG\GAME_2.0.EXE
C:\USERS\SUGAR\SOURCE\REPOS\GAME_3.0\DEBUG\GAME_2.0.ILK
C:\USERS\SUGAR\SOURCE\REPOS\GAME_3.0\DEBUG\GAME_2.0.PDB
