@stranger
hi
 >hi
    how r u
     >fine
        good
         <
     >bad
        it s bad
          >yes
            what u gonna do?
             >nothin
              well
             <
           <
         <
     <
 >bye
    oh. ok, bye
     <
 <
