^C:\USERS\SUGAR\SOURCE\REPOS\GAME_2.0\GAME_2.0\DEBUG\CONFIGURATION.OBJ|C:\USERS\SUGAR\SOURCE\REPOS\GAME_2.0\GAME_2.0\DEBUG\DIALOGUE.OBJ|C:\USERS\SUGAR\SOURCE\REPOS\GAME_2.0\GAME_2.0\DEBUG\DIALOGUEITERATOR.OBJ|C:\USERS\SUGAR\SOURCE\REPOS\GAME_2.0\GAME_2.0\DEBUG\DIALOGUEPARSER.OBJ|C:\USERS\SUGAR\SOURCE\REPOS\GAME_2.0\GAME_2.0\DEBUG\GAMEPROCESS.OBJ|C:\USERS\SUGAR\SOURCE\REPOS\GAME_2.0\GAME_2.0\DEBUG\HERO.OBJ|C:\USERS\SUGAR\SOURCE\REPOS\GAME_2.0\GAME_2.0\DEBUG\HEROMEDIATOR.OBJ|C:\USERS\SUGAR\SOURCE\REPOS\GAME_2.0\GAME_2.0\DEBUG\LEVEL.OBJ|C:\USERS\SUGAR\SOURCE\REPOS\GAME_2.0\GAME_2.0\DEBUG\MAIN.OBJ|C:\USERS\SUGAR\SOURCE\REPOS\GAME_2.0\GAME_2.0\DEBUG\PHRASENODE.OBJ|C:\USERS\SUGAR\SOURCE\REPOS\GAME_2.0\GAME_2.0\DEBUG\PLOT.OBJ|C:\USERS\SUGAR\SOURCE\REPOS\GAME_2.0\GAME_2.0\DEBUG\PLOTMANAGER.OBJ|C:\USERS\SUGAR\SOURCE\REPOS\GAME_2.0\GAME_2.0\DEBUG\PLOTPART.OBJ|C:\USERS\SUGAR\SOURCE\REPOS\GAME_2.0\GAME_2.0\DEBUG\PLOTPARTDECORATOR.OBJ|C:\USERS\SUGAR\SOURCE\REPOS\GAME_2.0\GAME_2.0\DEBUG\_LEVEL.OBJ|C:\USERS\SUGAR\SOURCE\REPOS\GAME_2.0\GAME_2.0\DEBUG\_PLOT.OBJ
C:\PROGRAM FILES (X86)\WINDOWS KITS\10\LIB\10.0.18362.0\UM\X86\KERNEL32.LIB
C:\PROGRAM FILES (X86)\WINDOWS KITS\10\LIB\10.0.18362.0\UM\X86\USER32.LIB
C:\PROGRAM FILES (X86)\WINDOWS KITS\10\LIB\10.0.18362.0\UM\X86\GDI32.LIB
C:\PROGRAM FILES (X86)\WINDOWS KITS\10\LIB\10.0.18362.0\UM\X86\WINSPOOL.LIB
C:\PROGRAM FILES (X86)\WINDOWS KITS\10\LIB\10.0.18362.0\UM\X86\COMDLG32.LIB
C:\PROGRAM FILES (X86)\WINDOWS KITS\10\LIB\10.0.18362.0\UM\X86\ADVAPI32.LIB
C:\PROGRAM FILES (X86)\WINDOWS KITS\10\LIB\10.0.18362.0\UM\X86\SHELL32.LIB
C:\PROGRAM FILES (X86)\WINDOWS KITS\10\LIB\10.0.18362.0\UM\X86\OLE32.LIB
C:\PROGRAM FILES (X86)\WINDOWS KITS\10\LIB\10.0.18362.0\UM\X86\OLEAUT32.LIB
C:\PROGRAM FILES (X86)\WINDOWS KITS\10\LIB\10.0.18362.0\UM\X86\UUID.LIB
C:\PROGRAM FILES (X86)\WINDOWS KITS\10\LIB\10.0.18362.0\UM\X86\ODBC32.LIB
C:\PROGRAM FILES (X86)\WINDOWS KITS\10\LIB\10.0.18362.0\UM\X86\ODBCCP32.LIB
C:\USERS\SUGAR\SOURCE\REPOS\GAME_2.0\GAME_2.0\DEBUG\CONFIGURATION.OBJ
C:\USERS\SUGAR\SOURCE\REPOS\GAME_2.0\GAME_2.0\DEBUG\DIALOGUE.OBJ
C:\USERS\SUGAR\SOURCE\REPOS\GAME_2.0\GAME_2.0\DEBUG\DIALOGUEITERATOR.OBJ
C:\USERS\SUGAR\SOURCE\REPOS\GAME_2.0\GAME_2.0\DEBUG\DIALOGUEPARSER.OBJ
C:\USERS\SUGAR\SOURCE\REPOS\GAME_2.0\GAME_2.0\DEBUG\GAMEPROCESS.OBJ
C:\USERS\SUGAR\SOURCE\REPOS\GAME_2.0\GAME_2.0\DEBUG\HERO.OBJ
C:\USERS\SUGAR\SOURCE\REPOS\GAME_2.0\GAME_2.0\DEBUG\HEROMEDIATOR.OBJ
C:\USERS\SUGAR\SOURCE\REPOS\GAME_2.0\GAME_2.0\DEBUG\LEVEL.OBJ
C:\USERS\SUGAR\SOURCE\REPOS\GAME_2.0\GAME_2.0\DEBUG\MAIN.OBJ
C:\USERS\SUGAR\SOURCE\REPOS\GAME_2.0\GAME_2.0\DEBUG\PHRASENODE.OBJ
C:\USERS\SUGAR\SOURCE\REPOS\GAME_2.0\GAME_2.0\DEBUG\PLOT.OBJ
C:\USERS\SUGAR\SOURCE\REPOS\GAME_2.0\GAME_2.0\DEBUG\PLOTMANAGER.OBJ
C:\USERS\SUGAR\SOURCE\REPOS\GAME_2.0\GAME_2.0\DEBUG\PLOTPART.OBJ
C:\USERS\SUGAR\SOURCE\REPOS\GAME_2.0\GAME_2.0\DEBUG\PLOTPARTDECORATOR.OBJ
C:\USERS\SUGAR\SOURCE\REPOS\GAME_2.0\GAME_2.0\DEBUG\_LEVEL.OBJ
C:\USERS\SUGAR\SOURCE\REPOS\GAME_2.0\GAME_2.0\DEBUG\_PLOT.OBJ
C:\WINDOWS\GLOBALIZATION\SORTING\SORTDEFAULT.NLS
C:\PROGRAM FILES (X86)\MICROSOFT VISUAL STUDIO\2019\COMMUNITY\VC\TOOLS\MSVC\14.25.28610\LIB\X86\MSVCPRTD.LIB
C:\PROGRAM FILES (X86)\MICROSOFT VISUAL STUDIO\2019\COMMUNITY\VC\TOOLS\MSVC\14.25.28610\LIB\X86\MSVCRTD.LIB
C:\PROGRAM FILES (X86)\MICROSOFT VISUAL STUDIO\2019\COMMUNITY\VC\TOOLS\MSVC\14.25.28610\LIB\X86\OLDNAMES.LIB
C:\PROGRAM FILES (X86)\MICROSOFT VISUAL STUDIO\2019\COMMUNITY\VC\TOOLS\MSVC\14.25.28610\LIB\X86\VCRUNTIMED.LIB
C:\PROGRAM FILES (X86)\WINDOWS KITS\10\LIB\10.0.18362.0\UCRT\X86\UCRTD.LIB
C:\PROGRAM FILES (X86)\MICROSOFT VISUAL STUDIO\2019\COMMUNITY\VC\TOOLS\MSVC\14.25.28610\BIN\HOSTX86\X86\VCTIP.EXE
^C:\USERS\SUGAR\SOURCE\REPOS\GAME_3.0\GAME_2.0\DEBUG\CONFIGURATION.OBJ|C:\USERS\SUGAR\SOURCE\REPOS\GAME_3.0\GAME_2.0\DEBUG\DIALOGUE.OBJ|C:\USERS\SUGAR\SOURCE\REPOS\GAME_3.0\GAME_2.0\DEBUG\DIALOGUEITERATOR.OBJ|C:\USERS\SUGAR\SOURCE\REPOS\GAME_3.0\GAME_2.0\DEBUG\DIALOGUEPARSER.OBJ|C:\USERS\SUGAR\SOURCE\REPOS\GAME_3.0\GAME_2.0\DEBUG\GAMEPROCESS.OBJ|C:\USERS\SUGAR\SOURCE\REPOS\GAME_3.0\GAME_2.0\DEBUG\GAMEPROCESSMEDIATOR.OBJ|C:\USERS\SUGAR\SOURCE\REPOS\GAME_3.0\GAME_2.0\DEBUG\HERO.OBJ|C:\USERS\SUGAR\SOURCE\REPOS\GAME_3.0\GAME_2.0\DEBUG\HEROCONTROLLER.OBJ|C:\USERS\SUGAR\SOURCE\REPOS\GAME_3.0\GAME_2.0\DEBUG\LEVEL.OBJ|C:\USERS\SUGAR\SOURCE\REPOS\GAME_3.0\GAME_2.0\DEBUG\MAIN.OBJ|C:\USERS\SUGAR\SOURCE\REPOS\GAME_3.0\GAME_2.0\DEBUG\PHRASENODE.OBJ|C:\USERS\SUGAR\SOURCE\REPOS\GAME_3.0\GAME_2.0\DEBUG\PLOT.OBJ|C:\USERS\SUGAR\SOURCE\REPOS\GAME_3.0\GAME_2.0\DEBUG\PLOTMANAGER.OBJ|C:\USERS\SUGAR\SOURCE\REPOS\GAME_3.0\GAME_2.0\DEBUG\PLOTPART.OBJ|C:\USERS\SUGAR\SOURCE\REPOS\GAME_3.0\GAME_2.0\DEBUG\PLOTPARTDECORATOR.OBJ|C:\USERS\SUGAR\SOURCE\REPOS\GAME_3.0\GAME_2.0\DEBUG\SAVE.OBJ
C:\PROGRAM FILES (X86)\WINDOWS KITS\10\LIB\10.0.18362.0\UM\X86\KERNEL32.LIB
C:\PROGRAM FILES (X86)\WINDOWS KITS\10\LIB\10.0.18362.0\UM\X86\USER32.LIB
C:\PROGRAM FILES (X86)\WINDOWS KITS\10\LIB\10.0.18362.0\UM\X86\GDI32.LIB
C:\PROGRAM FILES (X86)\WINDOWS KITS\10\LIB\10.0.18362.0\UM\X86\WINSPOOL.LIB
C:\PROGRAM FILES (X86)\WINDOWS KITS\10\LIB\10.0.18362.0\UM\X86\COMDLG32.LIB
C:\PROGRAM FILES (X86)\WINDOWS KITS\10\LIB\10.0.18362.0\UM\X86\ADVAPI32.LIB
C:\PROGRAM FILES (X86)\WINDOWS KITS\10\LIB\10.0.18362.0\UM\X86\SHELL32.LIB
C:\PROGRAM FILES (X86)\WINDOWS KITS\10\LIB\10.0.18362.0\UM\X86\OLE32.LIB
C:\PROGRAM FILES (X86)\WINDOWS KITS\10\LIB\10.0.18362.0\UM\X86\OLEAUT32.LIB
C:\PROGRAM FILES (X86)\WINDOWS KITS\10\LIB\10.0.18362.0\UM\X86\UUID.LIB
C:\PROGRAM FILES (X86)\WINDOWS KITS\10\LIB\10.0.18362.0\UM\X86\ODBC32.LIB
C:\PROGRAM FILES (X86)\WINDOWS KITS\10\LIB\10.0.18362.0\UM\X86\ODBCCP32.LIB
C:\USERS\SUGAR\SOURCE\REPOS\GAME_3.0\GAME_2.0\DEBUG\CONFIGURATION.OBJ
C:\USERS\SUGAR\SOURCE\REPOS\GAME_3.0\GAME_2.0\DEBUG\DIALOGUE.OBJ
C:\USERS\SUGAR\SOURCE\REPOS\GAME_3.0\GAME_2.0\DEBUG\DIALOGUEITERATOR.OBJ
C:\USERS\SUGAR\SOURCE\REPOS\GAME_3.0\GAME_2.0\DEBUG\DIALOGUEPARSER.OBJ
C:\USERS\SUGAR\SOURCE\REPOS\GAME_3.0\GAME_2.0\DEBUG\GAMEPROCESS.OBJ
C:\USERS\SUGAR\SOURCE\REPOS\GAME_3.0\GAME_2.0\DEBUG\GAMEPROCESSMEDIATOR.OBJ
C:\USERS\SUGAR\SOURCE\REPOS\GAME_3.0\GAME_2.0\DEBUG\HERO.OBJ
C:\USERS\SUGAR\SOURCE\REPOS\GAME_3.0\GAME_2.0\DEBUG\HEROCONTROLLER.OBJ
C:\USERS\SUGAR\SOURCE\REPOS\GAME_3.0\GAME_2.0\DEBUG\LEVEL.OBJ
C:\USERS\SUGAR\SOURCE\REPOS\GAME_3.0\GAME_2.0\DEBUG\MAIN.OBJ
C:\USERS\SUGAR\SOURCE\REPOS\GAME_3.0\GAME_2.0\DEBUG\PHRASENODE.OBJ
C:\USERS\SUGAR\SOURCE\REPOS\GAME_3.0\GAME_2.0\DEBUG\PLOT.OBJ
C:\USERS\SUGAR\SOURCE\REPOS\GAME_3.0\GAME_2.0\DEBUG\PLOTMANAGER.OBJ
C:\USERS\SUGAR\SOURCE\REPOS\GAME_3.0\GAME_2.0\DEBUG\PLOTPART.OBJ
C:\USERS\SUGAR\SOURCE\REPOS\GAME_3.0\GAME_2.0\DEBUG\PLOTPARTDECORATOR.OBJ
C:\USERS\SUGAR\SOURCE\REPOS\GAME_3.0\GAME_2.0\DEBUG\SAVE.OBJ
C:\WINDOWS\SYSTEM32\TZRES.DLL
C:\WINDOWS\GLOBALIZATION\SORTING\SORTDEFAULT.NLS
C:\PROGRAM FILES (X86)\MICROSOFT VISUAL STUDIO\2019\COMMUNITY\VC\TOOLS\MSVC\14.25.28610\LIB\X86\MSVCPRTD.LIB
C:\PROGRAM FILES (X86)\MICROSOFT VISUAL STUDIO\2019\COMMUNITY\VC\TOOLS\MSVC\14.25.28610\LIB\X86\MSVCRTD.LIB
C:\PROGRAM FILES (X86)\MICROSOFT VISUAL STUDIO\2019\COMMUNITY\VC\TOOLS\MSVC\14.25.28610\LIB\X86\OLDNAMES.LIB
C:\PROGRAM FILES (X86)\MICROSOFT VISUAL STUDIO\2019\COMMUNITY\VC\TOOLS\MSVC\14.25.28610\LIB\X86\VCRUNTIMED.LIB
C:\PROGRAM FILES (X86)\WINDOWS KITS\10\LIB\10.0.18362.0\UCRT\X86\UCRTD.LIB
C:\PROGRAM FILES (X86)\MICROSOFT VISUAL STUDIO\2019\COMMUNITY\VC\TOOLS\MSVC\14.25.28610\BIN\HOSTX86\X86\VCTIP.EXE
