^C:\USERS\SUGAR\SOURCE\REPOS\GAME_2.0\GAME_2.0\HERO.CPP
/c /ZI /JMC /nologo /W3 /WX- /diagnostics:column /sdl /Od /Oy- /D _DEBUG /D _CONSOLE /D _UNICODE /D UNICODE /Gm- /EHsc /RTC1 /MDd /GS /fp:precise /permissive- /Zc:wchar_t /Zc:forScope /Zc:inline /Fo"DEBUG\\" /Fd"DEBUG\VC142.PDB" /Gd /TP /analyze- /FC C:\USERS\SUGAR\SOURCE\REPOS\GAME_2.0\GAME_2.0\HERO.CPP
^C:\USERS\SUGAR\SOURCE\REPOS\GAME_2.0\GAME_2.0\HEROMEDIATOR.CPP
/c /ZI /JMC /nologo /W3 /WX- /diagnostics:column /sdl /Od /Oy- /D _DEBUG /D _CONSOLE /D _UNICODE /D UNICODE /Gm- /EHsc /RTC1 /MDd /GS /fp:precise /permissive- /Zc:wchar_t /Zc:forScope /Zc:inline /Fo"DEBUG\\" /Fd"DEBUG\VC142.PDB" /Gd /TP /analyze- /FC C:\USERS\SUGAR\SOURCE\REPOS\GAME_2.0\GAME_2.0\HEROMEDIATOR.CPP
^C:\USERS\SUGAR\SOURCE\REPOS\GAME_2.0\GAME_2.0\CONFIGURATION.CPP
/c /ZI /JMC /nologo /W3 /WX- /diagnostics:column /sdl /Od /Oy- /D _DEBUG /D _CONSOLE /D _UNICODE /D UNICODE /Gm- /EHsc /RTC1 /MDd /GS /fp:precise /permissive- /Zc:wchar_t /Zc:forScope /Zc:inline /Fo"DEBUG\\" /Fd"DEBUG\VC142.PDB" /Gd /TP /analyze- /FC C:\USERS\SUGAR\SOURCE\REPOS\GAME_2.0\GAME_2.0\CONFIGURATION.CPP
^C:\USERS\SUGAR\SOURCE\REPOS\GAME_2.0\GAME_2.0\DIALOGUE.CPP
/c /ZI /JMC /nologo /W3 /WX- /diagnostics:column /sdl /Od /Oy- /D _DEBUG /D _CONSOLE /D _UNICODE /D UNICODE /Gm- /EHsc /RTC1 /MDd /GS /fp:precise /permissive- /Zc:wchar_t /Zc:forScope /Zc:inline /Fo"DEBUG\\" /Fd"DEBUG\VC142.PDB" /Gd /TP /analyze- /FC C:\USERS\SUGAR\SOURCE\REPOS\GAME_2.0\GAME_2.0\DIALOGUE.CPP
^C:\USERS\SUGAR\SOURCE\REPOS\GAME_2.0\GAME_2.0\DIALOGUEITERATOR.CPP
/c /ZI /JMC /nologo /W3 /WX- /diagnostics:column /sdl /Od /Oy- /D _DEBUG /D _CONSOLE /D _UNICODE /D UNICODE /Gm- /EHsc /RTC1 /MDd /GS /fp:precise /permissive- /Zc:wchar_t /Zc:forScope /Zc:inline /Fo"DEBUG\\" /Fd"DEBUG\VC142.PDB" /Gd /TP /analyze- /FC C:\USERS\SUGAR\SOURCE\REPOS\GAME_2.0\GAME_2.0\DIALOGUEITERATOR.CPP
^C:\USERS\SUGAR\SOURCE\REPOS\GAME_2.0\GAME_2.0\DIALOGUEPARSER.CPP
/c /ZI /JMC /nologo /W3 /WX- /diagnostics:column /sdl /Od /Oy- /D _DEBUG /D _CONSOLE /D _UNICODE /D UNICODE /Gm- /EHsc /RTC1 /MDd /GS /fp:precise /permissive- /Zc:wchar_t /Zc:forScope /Zc:inline /Fo"DEBUG\\" /Fd"DEBUG\VC142.PDB" /Gd /TP /analyze- /FC C:\USERS\SUGAR\SOURCE\REPOS\GAME_2.0\GAME_2.0\DIALOGUEPARSER.CPP
^C:\USERS\SUGAR\SOURCE\REPOS\GAME_2.0\GAME_2.0\GAMEPROCESS.CPP
/c /ZI /JMC /nologo /W3 /WX- /diagnostics:column /sdl /Od /Oy- /D _DEBUG /D _CONSOLE /D _UNICODE /D UNICODE /Gm- /EHsc /RTC1 /MDd /GS /fp:precise /permissive- /Zc:wchar_t /Zc:forScope /Zc:inline /Fo"DEBUG\\" /Fd"DEBUG\VC142.PDB" /Gd /TP /analyze- /FC C:\USERS\SUGAR\SOURCE\REPOS\GAME_2.0\GAME_2.0\GAMEPROCESS.CPP
^C:\USERS\SUGAR\SOURCE\REPOS\GAME_2.0\GAME_2.0\PHRASENODE.CPP
/c /ZI /JMC /nologo /W3 /WX- /diagnostics:column /sdl /Od /Oy- /D _DEBUG /D _CONSOLE /D _UNICODE /D UNICODE /Gm- /EHsc /RTC1 /MDd /GS /fp:precise /permissive- /Zc:wchar_t /Zc:forScope /Zc:inline /Fo"DEBUG\\" /Fd"DEBUG\VC142.PDB" /Gd /TP /analyze- /FC C:\USERS\SUGAR\SOURCE\REPOS\GAME_2.0\GAME_2.0\PHRASENODE.CPP
^C:\USERS\SUGAR\SOURCE\REPOS\GAME_2.0\GAME_2.0\PLOTPART.CPP
/c /ZI /JMC /nologo /W3 /WX- /diagnostics:column /sdl /Od /Oy- /D _DEBUG /D _CONSOLE /D _UNICODE /D UNICODE /Gm- /EHsc /RTC1 /MDd /GS /fp:precise /permissive- /Zc:wchar_t /Zc:forScope /Zc:inline /Fo"DEBUG\\" /Fd"DEBUG\VC142.PDB" /Gd /TP /analyze- /FC C:\USERS\SUGAR\SOURCE\REPOS\GAME_2.0\GAME_2.0\PLOTPART.CPP
^C:\USERS\SUGAR\SOURCE\REPOS\GAME_2.0\GAME_2.0\PLOTPARTDECORATOR.CPP
/c /ZI /JMC /nologo /W3 /WX- /diagnostics:column /sdl /Od /Oy- /D _DEBUG /D _CONSOLE /D _UNICODE /D UNICODE /Gm- /EHsc /RTC1 /MDd /GS /fp:precise /permissive- /Zc:wchar_t /Zc:forScope /Zc:inline /Fo"DEBUG\\" /Fd"DEBUG\VC142.PDB" /Gd /TP /analyze- /FC C:\USERS\SUGAR\SOURCE\REPOS\GAME_2.0\GAME_2.0\PLOTPARTDECORATOR.CPP
^C:\USERS\SUGAR\SOURCE\REPOS\GAME_2.0\GAME_2.0\LEVEL.CPP
/c /ZI /JMC /nologo /W3 /WX- /diagnostics:column /sdl /Od /Oy- /D _DEBUG /D _CONSOLE /D _UNICODE /D UNICODE /Gm- /EHsc /RTC1 /MDd /GS /fp:precise /permissive- /Zc:wchar_t /Zc:forScope /Zc:inline /Fo"DEBUG\\" /Fd"DEBUG\VC142.PDB" /Gd /TP /analyze- /FC C:\USERS\SUGAR\SOURCE\REPOS\GAME_2.0\GAME_2.0\LEVEL.CPP
^C:\USERS\SUGAR\SOURCE\REPOS\GAME_2.0\GAME_2.0\PLOT.CPP
/c /ZI /JMC /nologo /W3 /WX- /diagnostics:column /sdl /Od /Oy- /D _DEBUG /D _CONSOLE /D _UNICODE /D UNICODE /Gm- /EHsc /RTC1 /MDd /GS /fp:precise /permissive- /Zc:wchar_t /Zc:forScope /Zc:inline /Fo"DEBUG\\" /Fd"DEBUG\VC142.PDB" /Gd /TP /analyze- /FC C:\USERS\SUGAR\SOURCE\REPOS\GAME_2.0\GAME_2.0\PLOT.CPP
^C:\USERS\SUGAR\SOURCE\REPOS\GAME_2.0\GAME_2.0\PLOTMANAGER.CPP
/c /ZI /JMC /nologo /W3 /WX- /diagnostics:column /sdl /Od /Oy- /D _DEBUG /D _CONSOLE /D _UNICODE /D UNICODE /Gm- /EHsc /RTC1 /MDd /GS /fp:precise /permissive- /Zc:wchar_t /Zc:forScope /Zc:inline /Fo"DEBUG\\" /Fd"DEBUG\VC142.PDB" /Gd /TP /analyze- /FC C:\USERS\SUGAR\SOURCE\REPOS\GAME_2.0\GAME_2.0\PLOTMANAGER.CPP
^C:\USERS\SUGAR\SOURCE\REPOS\GAME_2.0\GAME_2.0\_LEVEL.CPP
/c /ZI /JMC /nologo /W3 /WX- /diagnostics:column /sdl /Od /Oy- /D _DEBUG /D _CONSOLE /D _UNICODE /D UNICODE /Gm- /EHsc /RTC1 /MDd /GS /fp:precise /permissive- /Zc:wchar_t /Zc:forScope /Zc:inline /Fo"DEBUG\\" /Fd"DEBUG\VC142.PDB" /Gd /TP /analyze- /FC C:\USERS\SUGAR\SOURCE\REPOS\GAME_2.0\GAME_2.0\_LEVEL.CPP
^C:\USERS\SUGAR\SOURCE\REPOS\GAME_2.0\GAME_2.0\_PLOT.CPP
/c /ZI /JMC /nologo /W3 /WX- /diagnostics:column /sdl /Od /Oy- /D _DEBUG /D _CONSOLE /D _UNICODE /D UNICODE /Gm- /EHsc /RTC1 /MDd /GS /fp:precise /permissive- /Zc:wchar_t /Zc:forScope /Zc:inline /Fo"DEBUG\\" /Fd"DEBUG\VC142.PDB" /Gd /TP /analyze- /FC C:\USERS\SUGAR\SOURCE\REPOS\GAME_2.0\GAME_2.0\_PLOT.CPP
^C:\USERS\SUGAR\SOURCE\REPOS\GAME_2.0\GAME_2.0\MAIN.CPP
/c /ZI /JMC /nologo /W3 /WX- /diagnostics:column /sdl /Od /Oy- /D _DEBUG /D _CONSOLE /D _UNICODE /D UNICODE /Gm- /EHsc /RTC1 /MDd /GS /fp:precise /permissive- /Zc:wchar_t /Zc:forScope /Zc:inline /Fo"DEBUG\\" /Fd"DEBUG\VC142.PDB" /Gd /TP /analyze- /FC C:\USERS\SUGAR\SOURCE\REPOS\GAME_2.0\GAME_2.0\MAIN.CPP
^C:\USERS\SUGAR\SOURCE\REPOS\GAME_3.0\GAME_2.0\PLOTPART.CPP
/c /ZI /JMC /nologo /W3 /WX- /diagnostics:column /sdl /Od /Oy- /D _DEBUG /D _CONSOLE /D _UNICODE /D UNICODE /Gm- /EHsc /RTC1 /MDd /GS /fp:precise /permissive- /Zc:wchar_t /Zc:forScope /Zc:inline /Fo"DEBUG\\" /Fd"DEBUG\VC142.PDB" /Gd /TP /analyze- /FC C:\USERS\SUGAR\SOURCE\REPOS\GAME_3.0\GAME_2.0\PLOTPART.CPP
^C:\USERS\SUGAR\SOURCE\REPOS\GAME_3.0\GAME_2.0\PLOTPARTDECORATOR.CPP
/c /ZI /JMC /nologo /W3 /WX- /diagnostics:column /sdl /Od /Oy- /D _DEBUG /D _CONSOLE /D _UNICODE /D UNICODE /Gm- /EHsc /RTC1 /MDd /GS /fp:precise /permissive- /Zc:wchar_t /Zc:forScope /Zc:inline /Fo"DEBUG\\" /Fd"DEBUG\VC142.PDB" /Gd /TP /analyze- /FC C:\USERS\SUGAR\SOURCE\REPOS\GAME_3.0\GAME_2.0\PLOTPARTDECORATOR.CPP
^C:\USERS\SUGAR\SOURCE\REPOS\GAME_3.0\GAME_2.0\LEVEL.CPP
/c /ZI /JMC /nologo /W3 /WX- /diagnostics:column /sdl /Od /Oy- /D _DEBUG /D _CONSOLE /D _UNICODE /D UNICODE /Gm- /EHsc /RTC1 /MDd /GS /fp:precise /permissive- /Zc:wchar_t /Zc:forScope /Zc:inline /Fo"DEBUG\\" /Fd"DEBUG\VC142.PDB" /Gd /TP /analyze- /FC C:\USERS\SUGAR\SOURCE\REPOS\GAME_3.0\GAME_2.0\LEVEL.CPP
^C:\USERS\SUGAR\SOURCE\REPOS\GAME_3.0\GAME_2.0\PHRASENODE.CPP
/c /ZI /JMC /nologo /W3 /WX- /diagnostics:column /sdl /Od /Oy- /D _DEBUG /D _CONSOLE /D _UNICODE /D UNICODE /Gm- /EHsc /RTC1 /MDd /GS /fp:precise /permissive- /Zc:wchar_t /Zc:forScope /Zc:inline /Fo"DEBUG\\" /Fd"DEBUG\VC142.PDB" /Gd /TP /analyze- /FC C:\USERS\SUGAR\SOURCE\REPOS\GAME_3.0\GAME_2.0\PHRASENODE.CPP
^C:\USERS\SUGAR\SOURCE\REPOS\GAME_3.0\GAME_2.0\PLOT.CPP
/c /ZI /JMC /nologo /W3 /WX- /diagnostics:column /sdl /Od /Oy- /D _DEBUG /D _CONSOLE /D _UNICODE /D UNICODE /Gm- /EHsc /RTC1 /MDd /GS /fp:precise /permissive- /Zc:wchar_t /Zc:forScope /Zc:inline /Fo"DEBUG\\" /Fd"DEBUG\VC142.PDB" /Gd /TP /analyze- /FC C:\USERS\SUGAR\SOURCE\REPOS\GAME_3.0\GAME_2.0\PLOT.CPP
^C:\USERS\SUGAR\SOURCE\REPOS\GAME_3.0\GAME_2.0\SAVER.CPP
/c /ZI /JMC /nologo /W3 /WX- /diagnostics:column /sdl /Od /Oy- /D _DEBUG /D _CONSOLE /D _UNICODE /D UNICODE /Gm- /EHsc /RTC1 /MDd /GS /fp:precise /permissive- /Zc:wchar_t /Zc:forScope /Zc:inline /Fo"DEBUG\\" /Fd"DEBUG\VC142.PDB" /Gd /TP /analyze- /FC C:\USERS\SUGAR\SOURCE\REPOS\GAME_3.0\GAME_2.0\SAVER.CPP
^C:\USERS\SUGAR\SOURCE\REPOS\GAME_3.0\GAME_2.0\GAMEPROCESSMEDIATOR.CPP
/c /ZI /JMC /nologo /W3 /WX- /diagnostics:column /sdl /Od /Oy- /D _DEBUG /D _CONSOLE /D _UNICODE /D UNICODE /Gm- /EHsc /RTC1 /MDd /GS /fp:precise /permissive- /Zc:wchar_t /Zc:forScope /Zc:inline /Fo"DEBUG\\" /Fd"DEBUG\VC142.PDB" /Gd /TP /analyze- /FC C:\USERS\SUGAR\SOURCE\REPOS\GAME_3.0\GAME_2.0\GAMEPROCESSMEDIATOR.CPP
^C:\USERS\SUGAR\SOURCE\REPOS\GAME_3.0\GAME_2.0\HEROMEDIATOR.CPP
/c /ZI /JMC /nologo /W3 /WX- /diagnostics:column /sdl /Od /Oy- /D _DEBUG /D _CONSOLE /D _UNICODE /D UNICODE /Gm- /EHsc /RTC1 /MDd /GS /fp:precise /permissive- /Zc:wchar_t /Zc:forScope /Zc:inline /Fo"DEBUG\\" /Fd"DEBUG\VC142.PDB" /Gd /TP /analyze- /FC C:\USERS\SUGAR\SOURCE\REPOS\GAME_3.0\GAME_2.0\HEROMEDIATOR.CPP
^C:\USERS\SUGAR\SOURCE\REPOS\GAME_3.0\GAME_2.0\HERO.CPP
/c /ZI /JMC /nologo /W3 /WX- /diagnostics:column /sdl /Od /Oy- /D _DEBUG /D _CONSOLE /D _UNICODE /D UNICODE /Gm- /EHsc /RTC1 /MDd /GS /fp:precise /permissive- /Zc:wchar_t /Zc:forScope /Zc:inline /Fo"DEBUG\\" /Fd"DEBUG\VC142.PDB" /Gd /TP /analyze- /FC C:\USERS\SUGAR\SOURCE\REPOS\GAME_3.0\GAME_2.0\HERO.CPP
^C:\USERS\SUGAR\SOURCE\REPOS\GAME_3.0\GAME_2.0\DIALOGUE.CPP
/c /ZI /JMC /nologo /W3 /WX- /diagnostics:column /sdl /Od /Oy- /D _DEBUG /D _CONSOLE /D _UNICODE /D UNICODE /Gm- /EHsc /RTC1 /MDd /GS /fp:precise /permissive- /Zc:wchar_t /Zc:forScope /Zc:inline /Fo"DEBUG\\" /Fd"DEBUG\VC142.PDB" /Gd /TP /analyze- /FC C:\USERS\SUGAR\SOURCE\REPOS\GAME_3.0\GAME_2.0\DIALOGUE.CPP
^C:\USERS\SUGAR\SOURCE\REPOS\GAME_3.0\GAME_2.0\DIALOGUEITERATOR.CPP
/c /ZI /JMC /nologo /W3 /WX- /diagnostics:column /sdl /Od /Oy- /D _DEBUG /D _CONSOLE /D _UNICODE /D UNICODE /Gm- /EHsc /RTC1 /MDd /GS /fp:precise /permissive- /Zc:wchar_t /Zc:forScope /Zc:inline /Fo"DEBUG\\" /Fd"DEBUG\VC142.PDB" /Gd /TP /analyze- /FC C:\USERS\SUGAR\SOURCE\REPOS\GAME_3.0\GAME_2.0\DIALOGUEITERATOR.CPP
^C:\USERS\SUGAR\SOURCE\REPOS\GAME_3.0\GAME_2.0\DIALOGUEPARSER.CPP
/c /ZI /JMC /nologo /W3 /WX- /diagnostics:column /sdl /Od /Oy- /D _DEBUG /D _CONSOLE /D _UNICODE /D UNICODE /Gm- /EHsc /RTC1 /MDd /GS /fp:precise /permissive- /Zc:wchar_t /Zc:forScope /Zc:inline /Fo"DEBUG\\" /Fd"DEBUG\VC142.PDB" /Gd /TP /analyze- /FC C:\USERS\SUGAR\SOURCE\REPOS\GAME_3.0\GAME_2.0\DIALOGUEPARSER.CPP
^C:\USERS\SUGAR\SOURCE\REPOS\GAME_3.0\GAME_2.0\PLOTMANAGER.CPP
/c /ZI /JMC /nologo /W3 /WX- /diagnostics:column /sdl /Od /Oy- /D _DEBUG /D _CONSOLE /D _UNICODE /D UNICODE /Gm- /EHsc /RTC1 /MDd /GS /fp:precise /permissive- /Zc:wchar_t /Zc:forScope /Zc:inline /Fo"DEBUG\\" /Fd"DEBUG\VC142.PDB" /Gd /TP /analyze- /FC C:\USERS\SUGAR\SOURCE\REPOS\GAME_3.0\GAME_2.0\PLOTMANAGER.CPP
^C:\USERS\SUGAR\SOURCE\REPOS\GAME_3.0\GAME_2.0\GAMEPROCESS.CPP
/c /ZI /JMC /nologo /W3 /WX- /diagnostics:column /sdl /Od /Oy- /D _DEBUG /D _CONSOLE /D _UNICODE /D UNICODE /Gm- /EHsc /RTC1 /MDd /GS /fp:precise /permissive- /Zc:wchar_t /Zc:forScope /Zc:inline /Fo"DEBUG\\" /Fd"DEBUG\VC142.PDB" /Gd /TP /analyze- /FC C:\USERS\SUGAR\SOURCE\REPOS\GAME_3.0\GAME_2.0\GAMEPROCESS.CPP
